…
avg_ap_score
18
0.98
3.87
0.67
1.00
3.50
4.00
4.33
5.0
▁▁▃▇▆

df %>% filter(!complete.cases(.))

## # A tibble: 124 x 9
##      gpa   sat ethnicity essay_strength family_income accepted n_ap_score sum_ap_score avg_ap_score
##    <dbl> <dbl> <chr>              <dbl>         <dbl> <fct>         <int>        <int>        <dbl>
##  1  3.17  1470 <NA>                   3        98890. no                2            7         3.5 
##  2  3.61    NA Asian                  3       109788. no                2            7         3.5 
##  3  4     1350 <NA>                   3       143982. yes               2            5         2.5 
##  4  4       NA Black                  3        99163. no                8           38         4.75
##  5  4       NA Asian                  2        86596. no                5           23         4.6 
##  6  3.76  1550 Asian                  1       142969. yes              NA           NA        NA   
##  7  3.46  1320 <NA>                   1        65443. no                5           20         4   
##  8  3.54  1350 <NA>                   2        74133. yes               4           16         4   
##  9  4     1440 <NA>                   3       136912. yes               2            8         4   
## 10  4       NA Asian                  2       113013. no                4           14         3.5 
## # ... with 114 more rows
…
Correlations are a quick way to get some insight into our numeric features. sat and gpa are the most correlated features, which is not too surprising. Nonetheless, they are not super highly correlated, so I don’t think we really have an issue with multicollinearity (which wouldn’t be hard to account for anyways).

df_num <- 
  df %>% 
  select(accepted, where(is.numeric)) %>% 
  # more interested in avg and n than the sum, for modeling
  select(-sum_ap_score)
df_num

## # A tibble: 1,000 x 7
##    accepted   gpa   sat essay_strength family_income n_ap_score avg_ap_score
##    <fct>    <dbl> <dbl>          <dbl>         <dbl>      <int>        <dbl>
##  1 no        3.40  1390              3        80115.          2         2   
##  2 no        3.17  1470              3        98890.          2         3.5 
##  3 yes       4     1400              1       120266.          3         3.67
##  4 no        3.61    NA              3       109788.          2         3.5 
##  5 no        4     1320              3        96784.          4         4.75
##  6 no        3.17  1410              3       113587.          1         3   
##  7 no        3.92  1480              1        88475.          4         4.75
##  8 yes       3.09  1300              1        79190.          6         2.5 
##  9 no        4     1430              3       103287.          4         3.5 
## 10 yes       3.26  1440              1       122057.          6         4.17
## # ... with 990 more rows

cors <-
  df_num %>%
  mutate(across(accepted, as.integer)) %>% 
  corrr::correlate(quiet = TRUE) %>% 
  pivot_longer(-term) %>% 
  rename(col1 = term, col2 = name, cor = value) %>% 
  filter(col1 != col2) %>% 
  arrange(desc(abs(cor)))
cors      

## # A tibble: 42 x 3
##    col1         col2           cor
##    <chr>        <chr>        <dbl>
##  1 gpa          sat          0.406
##  2 sat          gpa          0.406
##  3 sat          avg_ap_score 0.392
##  4 avg_ap_score sat          0.392
##  5 gpa          avg_ap_score 0.219
##  6 avg_ap_score gpa          0.219
##  7 accepted     gpa          0.183
##  8 gpa          accepted     0.183
##  9 accepted     sat          0.174
## 10 sat          accepted     0.174
## # ... with 32 more rows
…
# quick check
jui_trn <- rec %>% prep() %>% juice()
jui_trn

## # A tibble: 749 x 10
##      gpa   sat essay_strength family_income n_ap_score avg_ap_score accepted ethnicity_Black ethnicity_White ethnicity_other
##    <dbl> <dbl>          <dbl>         <dbl>      <int>        <dbl> <fct>              <dbl>           <dbl>           <dbl>
##  1  3.40  1390              3        80115.          2         2    no                     0               0               0
##  2  3.17  1470              3        98890.          2         3.5  no                     0               1               0
##  3  3.61  1392              3       109788.          2         3.5  no                     0               0               0
##  4  4     1320              3        96784.          4         4.75 no                     0               0               1
##  5  3.17  1410              3       113587.          1         3    no                     0               1               0
##  6  3.92  1480              1        88475.          4         4.75 no                     0               0               1
##  7  3.74  1340              2       114977.          7         3.29 no                     0               1               0
##  8  4     1280              2       183528.          6         3.5  no                     0               1               0
##  9  3.50  1390              2       120920.          9         3.11 no                     0               1               0
## 10  4     1460              2        68781.          4         4.75 no                     0               0               1
## # ... with 739 more rows
…
grid_lin <- crossing(
  mixture = c(0, 0.25, 0.5, 0.75, 1),
  # mixture = 0.5,
  penalty = 10 ^ seq(-3, 0, .1)
)
grid_lin

## # A tibble: 155 x 2
##    mixture penalty
##      <dbl>   <dbl>
##  1       0 0.001  
##  2       0 0.00126
##  3       0 0.00158
##  4       0 0.00200
##  5       0 0.00251
##  6       0 0.00316
##  7       0 0.00398
##  8       0 0.00501
##  9       0 0.00631
## 10       0 0.00794
## # ... with 145 more rows
…
mets_lin <- tune_lin %>% collect_metrics()
mets_lin

## # A tibble: 465 x 8
##    penalty mixture .metric     .estimator  mean     n std_err .config               
##      <dbl>   <dbl> <chr>       <chr>      <dbl> <int>   <dbl> <chr>                 
##  1 0.001         0 accuracy    binary     0.597    10  0.0266 Preprocessor1_Model001
##  2 0.001         0 mn_log_loss binary     0.663    10  0.0174 Preprocessor1_Model001
##  3 0.001         0 roc_auc     binary     0.620    10  0.0301 Preprocessor1_Model001
##  4 0.00126       0 accuracy    binary     0.597    10  0.0266 Preprocessor1_Model002
##  5 0.00126       0 mn_log_loss binary     0.663    10  0.0174 Preprocessor1_Model002
##  6 0.00126       0 roc_auc     binary     0.620    10  0.0301 Preprocessor1_Model002
##  7 0.00158       0 accuracy    binary     0.597    10  0.0266 Preprocessor1_Model003
##  8 0.00158       0 mn_log_loss binary     0.663    10  0.0174 Preprocessor1_Model003
##  9 0.00158       0 roc_auc     binary     0.620    10  0.0301 Preprocessor1_Model003
## 10 0.00200       0 accuracy    binary     0.597    10  0.0266 Preprocessor1_Model004
## # ... with 455 more rows
…
Get predictions for holdout set (“test.csv”).

# Save these for potential exporting, after checking how good xgboost is
probs_hold_lin <-
  fit_lin %>% 
  predict(df_hold, type = 'prob')
probs_hold_lin

## # A tibble: 1,000 x 2
##    .pred_no .pred_yes
##       <dbl>     <dbl>
##  1    0.556     0.444
##  2    0.373     0.627
##  3    0.277     0.723
##  4    0.338     0.662
##  5    0.533     0.467
##  6    0.446     0.554
##  7    0.286     0.714
##  8    0.347     0.653
##  9    0.450     0.550
## 10    0.510     0.490
## # ... with 990 more rows
…
